python benchmark_ner/main.py
----------------------------number en entitites!----------------------------
----------------------------------------------------------------------------
----------------------------------------------------------------------------
{'location': 317, 'organization': 181, 'person': 256, 'event': 23}
----------------------------------------------------------------------------
----------------------------------------------------------------------------
----------------------------------------------------------------------------
--------------Number en entitites recognized by amazon---------------------
----------------------------------------------------------------------------
----------------------------------------------------------------------------
{'location': 287, 'organization': 248, 'person': 322, 'event': 34}
----------------------------------------------------------------------------
----------------------------------------------------------------------------
----------------------------------------------------------------------------
--------------Number en entitites recognized by microsoft---------------------
----------------------------------------------------------------------------
----------------------------------------------------------------------------
{'location': 393, 'organization': 217, 'person': 313, 'event': 76}
----------------------------------------------------------------------------
----------------------------------------------------------------------------
----------------------------------------------------------------------------
--------------Number en entitites recognized by ibm---------------------
----------------------------------------------------------------------------
----------------------------------------------------------------------------
{'location': 227, 'organization': 244, 'person': 280, 'event': 0}
----------------------------------------------------------------------------
----------------------------------------------------------------------------
----------------------------------------------------------------------------
--------------Number en entitites recognized by google---------------------
----------------------------------------------------------------------------
----------------------------------------------------------------------------
{'location': 452, 'organization': 266, 'person': 490, 'event': 116}
----------------------------------------------------------------------------
----------------------------------------------------------------------------
----------------------------------------------------------------------------
{'location': {'tp': 198, 'fp': 25, 'fn': 22, 'precision': 0.8878923766816144, 'recall': 0.9, 'f1': 0.8939051918735892}, 'organization': {'tp': 119, 'fp': 48, 'fn': 17, 'precision': 0.7125748502994012, 'recall': 0.875, 'f1': 0.7854785478547855}, 'person': {'tp': 234, 'fp': 25, 'fn': 8, 'precision': 0.9034749034749034, 'recall': 0.9669421487603306, 'f1': 0.934131736526946}, 'event': {'tp': 12, 'fp': 4, 'fn': 1, 'precision': 0.75, 'recall': 0.9230769230769231, 'f1': 0.8275862068965517}}
