python benchmark_ner/main.py
----------------------------number en entitites!----------------------------
----------------------------------------------------------------------------
----------------------------------------------------------------------------
{'location': 415, 'organization': 496, 'person': 399, 'event': 129}
----------------------------------------------------------------------------
----------------------------------------------------------------------------
----------------------------------------------------------------------------
--------------Number en entitites recognized by amazon---------------------
----------------------------------------------------------------------------
----------------------------------------------------------------------------
{'location': 249, 'organization': 246, 'person': 336, 'event': 27}
----------------------------------------------------------------------------
----------------------------------------------------------------------------
----------------------------------------------------------------------------
--------------Number en entitites recognized by ibm---------------------
----------------------------------------------------------------------------
----------------------------------------------------------------------------
{'location': 286, 'organization': 305, 'person': 282, 'event': 0}
----------------------------------------------------------------------------
----------------------------------------------------------------------------
----------------------------------------------------------------------------
--------------Number en entitites recognized by google---------------------
----------------------------------------------------------------------------
----------------------------------------------------------------------------
{'location': 496, 'organization': 342, 'person': 645, 'event': 108}
----------------------------------------------------------------------------
----------------------------------------------------------------------------
----------------------------------------------------------------------------
{'location': {'tp': 139, 'fp': 112, 'fn': 30, 'precision': 0.5537848605577689, 'recall': 0.8224852071005917, 'f1': 0.6619047619047618}, 'organization': {'tp': 60, 'fp': 44, 'fn': 71, 'precision': 0.5769230769230769, 'recall': 0.4580152671755725, 'f1': 0.5106382978723403}, 'person': {'tp': 134, 'fp': 76, 'fn': 11, 'precision': 0.638095238095238, 'recall': 0.9241379310344827, 'f1': 0.7549295774647886}, 'event': {'tp': 12, 'fp': 4, 'fn': 19, 'precision': 0.75, 'recall': 0.3870967741935484, 'f1': 0.5106382978723403}}
