python benchmark_ner/main.py
----------------------------number en entitites!----------------------------
----------------------------------------------------------------------------
----------------------------------------------------------------------------
{'location': 317, 'organization': 181, 'person': 256, 'event': 23}
----------------------------------------------------------------------------
----------------------------------------------------------------------------
----------------------------------------------------------------------------
--------------Number en entitites recognized by amazon---------------------
----------------------------------------------------------------------------
----------------------------------------------------------------------------
{'location': 287, 'organization': 248, 'person': 322, 'event': 34}
----------------------------------------------------------------------------
----------------------------------------------------------------------------
----------------------------------------------------------------------------
--------------Number en entitites recognized by microsoft---------------------
----------------------------------------------------------------------------
----------------------------------------------------------------------------
{'location': 393, 'organization': 217, 'person': 313, 'event': 76}
----------------------------------------------------------------------------
----------------------------------------------------------------------------
----------------------------------------------------------------------------
--------------Number en entitites recognized by ibm---------------------
----------------------------------------------------------------------------
----------------------------------------------------------------------------
{'location': 227, 'organization': 244, 'person': 280, 'event': 0}
----------------------------------------------------------------------------
----------------------------------------------------------------------------
----------------------------------------------------------------------------
--------------Number en entitites recognized by google---------------------
----------------------------------------------------------------------------
----------------------------------------------------------------------------
{'location': 452, 'organization': 266, 'person': 490, 'event': 116}
----------------------------------------------------------------------------
----------------------------------------------------------------------------
----------------------------------------------------------------------------

WARNING: IBM provider has a problem with the 'event' class!

{'location': {'tp': 146, 'fp': 18, 'fn': 16, 'precision': 0.8902439024390244, 'recall': 0.9012345679012346, 'f1': 0.8957055214723927}, 'organization': {'tp': 85, 'fp': 64, 'fn': 12, 'precision': 0.5704697986577181, 'recall': 0.8762886597938144, 'f1': 0.6910569105691057}, 'person': {'tp': 207, 'fp': 28, 'fn': 10, 'precision': 0.8808510638297873, 'recall': 0.9539170506912442, 'f1': 0.9159292035398231}, 'event': {'tp': 0, 'fp': 0, 'fn': 11}}
