python benchmark_ner/main.py
----------------------------number en entitites!----------------------------
----------------------------------------------------------------------------
----------------------------------------------------------------------------
{'location': 415, 'organization': 496, 'person': 399, 'event': 129}
----------------------------------------------------------------------------
----------------------------------------------------------------------------
----------------------------------------------------------------------------
--------------Number en entitites recognized by amazon---------------------
----------------------------------------------------------------------------
----------------------------------------------------------------------------
{'location': 249, 'organization': 246, 'person': 336, 'event': 27}
----------------------------------------------------------------------------
----------------------------------------------------------------------------
----------------------------------------------------------------------------
--------------Number en entitites recognized by ibm---------------------
----------------------------------------------------------------------------
----------------------------------------------------------------------------
{'location': 286, 'organization': 305, 'person': 282, 'event': 0}
----------------------------------------------------------------------------
----------------------------------------------------------------------------
----------------------------------------------------------------------------
--------------Number en entitites recognized by google---------------------
----------------------------------------------------------------------------
----------------------------------------------------------------------------
{'location': 496, 'organization': 342, 'person': 645, 'event': 108}
----------------------------------------------------------------------------
----------------------------------------------------------------------------
----------------------------------------------------------------------------

WARNING: IBM provider has a problem with the 'event' class!

{'location': {'tp': 0, 'fp': 0, 'fn': 0}, 'organization': {'tp': 0, 'fp': 0, 'fn': 0}, 'person': {'tp': 0, 'fp': 0, 'fn': 0}, 'event': {'tp': 0, 'fp': 0, 'fn': 0}}
