{
    "location": {
        "tp": 198,
        "fp": 25,
        "fn": 22,
        "precision": 0.8878923766816144,
        "recall": 0.9,
        "f1": 0.8939051918735892
    },
    "organization": {
        "tp": 119,
        "fp": 48,
        "fn": 17,
        "precision": 0.7125748502994012,
        "recall": 0.875,
        "f1": 0.7854785478547855
    },
    "person": {
        "tp": 234,
        "fp": 25,
        "fn": 8,
        "precision": 0.9034749034749034,
        "recall": 0.9669421487603306,
        "f1": 0.934131736526946
    },
    "event": {
        "tp": 12,
        "fp": 4,
        "fn": 1,
        "precision": 0.75,
        "recall": 0.9230769230769231,
        "f1": 0.8275862068965517
    }
}